{"total_results": 10000, "total_pages": 500, "page": 1, "results": [{"origin_country": ["US"], "poster_path": "/glKDfE6btIRcVB5zrjspRIs4r52.jpg", "name": "WandaVision", "overview": "Wanda Maximoff aka Scarlett Witch hat ihren Lebensgef\u00e4hrten Android Vision verloren \u2013 und schafft sich mit ihren Kr\u00e4ften und in Realit\u00e4tsflucht eine eigene, an amerikanische Sitcoms angelehnte Fantasie-Welt, in der sie mit ihm lebt \u2013 ein psychisch alles andere als gesunder Zustand \u2026  Letztendlich wird sie sich aus dem Geflecht ihrer eigenen Gedanken und verzerrten Realit\u00e4ten befreien m\u00fcssen. Aber gibt es jemand, der sie f\u00fcr seine Zwecke manipuliert? Wer kann Wanda helfen, in die Realit\u00e4t zur\u00fcckzufinden?", "popularity": 2756.9400000000001, "original_name": "WandaVision", "backdrop_path": "/lOr9NKxh4vMweufMOUDJjJhCRHW.jpg", "vote_average": 8.4000000000000004, "vote_count": 1515, "first_air_date": "2021-01-15", "original_language": "en", "id": 85271, "genre_ids": [10765, 10759, 9648, 35]}, {"origin_country": ["US"], "poster_path": "/pHcNHYPg0c2vg7qay6wjJoApUgS.jpg", "name": "Riverdale", "overview": "Archie und seine Clique m\u00fcssen nicht nur Sex, Liebe, Schule und Familie meistern, sondern werden in Riverdale ganz nebenbei auch noch in ein dunkles Geheimnis verwickelt.", "popularity": 1540.8340000000001, "original_name": "Riverdale", "backdrop_path": "/9hvhGtcsGhQY58pukw8w55UEUbL.jpg", "vote_average": 8.5999999999999996, "vote_count": 7977, "first_air_date": "2017-01-26", "original_language": "en", "id": 69050, "genre_ids": [18, 9648]}, {"origin_country": ["US"], "poster_path": "/eTMMU2rKpZRbo9ERytyhwatwAjz.jpg", "name": "Cobra Kai", "overview": "Jahrzehnte nach dem Turnier, das ihr Leben ver\u00e4nderte, flammt die Rivalit\u00e4t zwischen Johnny und Daniel in dieser Fortsetzung der \u201eKarate Kid\u201c-Filme erneut auf.", "popularity": 979.23000000000002, "original_name": "Cobra Kai", "backdrop_path": "/gL8myjGc2qrmqVosyGm5CWTir9A.jpg", "vote_average": 8.1999999999999993, "vote_count": 1883, "first_air_date": "2018-05-02", "original_language": "en", "id": 77169, "genre_ids": [10759, 18]}, {"origin_country": ["US"], "poster_path": "/z1K4mJwISETia59rrnMdXxzoSrZ.jpg", "name": "The Good Doctor", "overview": "Im Fokus der amerikanischen Krankenhausserie steht der junge Chirurg Shaun Murphy am angesehenen San Jose St. Bonaventure Hospital. Murphy unterscheidet sich nicht nur aufgrund seines Alters von seinen Kollegen \u2013 er ist ein Autist, der aufgrund des Savant-Syndroms (auch Inselbegabung genannt) als Genie gilt.", "popularity": 870.07600000000002, "original_name": "The Good Doctor", "backdrop_path": "/mZjZgY6ObiKtVuKVDrnS9VnuNlE.jpg", "vote_average": 8.5999999999999996, "vote_count": 6452, "first_air_date": "2017-09-25", "original_language": "en", "id": 71712, "genre_ids": [18]}, {"origin_country": ["US"], "poster_path": "/BbNvKCuEF4SRzFXR16aK6ISFtR.jpg", "name": "The Mandalorian", "overview": "Ein mandalorianischer Kopfgeldj\u00e4ger, der sich frappierend von Boba Fett unterscheidet, geht seinem zwielichtigen Job nach, wobei gerade die Moral h\u00e4ufig in Konflikt mit seinen manchmal eher zweifelhaften Auftr\u00e4gen ger\u00e4t. Die Handlung setzt 5 Jahre nach dem Fall des Imperiums ein, der sich in \u201eStar Wars: Episode VI \u2013 Die R\u00fcckkehr der Jedi-Ritter\u201c ereignete.", "popularity": 862.15099999999995, "original_name": "The Mandalorian", "backdrop_path": "/o7qi2v4uWQ8bZ1tW3KI0Ztn2epk.jpg", "vote_average": 8.5, "vote_count": 5287, "first_air_date": "2019-11-12", "original_language": "en", "id": 82856, "genre_ids": [10765, 10759]}, {"origin_country": ["CA"], "poster_path": "/oktTNFM8PzdseiK1X0E0XhB6LvP.jpg", "name": "Vikings", "overview": "Inspiriert von den \u00fcberlieferten Sagen des legend\u00e4ren Wikingerk\u00f6nigs Ragnar Lothbrok entf\u00fchrt die gefeierte Hitserie in den eisigen Norden des europ\u00e4ischen Kontinents im 8. Jahrhundert: Krieger Ragnar glaubt, dass jenseits des wilden Ozeans im unerforschten Westen ein neues Land mit reichen Sch\u00e4tzen auf die Wikingerhorden wartet. F\u00fcr seine \u00dcberzeugungen setzt er alles auf eine Karte, l\u00e4sst ein neues Schiff bauen und macht sich in den packenden neun Episoden der ersten Staffel auf, um Geschichte zu schreiben.", "popularity": 799.99900000000002, "original_name": "Vikings", "backdrop_path": "/aq2yEMgRQBPfRkrO0Repo2qhUAT.jpg", "vote_average": 8, "vote_count": 3843, "first_air_date": "2013-03-03", "original_language": "en", "id": 44217, "genre_ids": [10759, 18]}, {"origin_country": ["FR"], "poster_path": "/mGlq9PLzPidSJiOCEvei1KSDaOd.jpg", "name": "Lupin", "overview": "Inspiriert von den Abenteuern Ars\u00e8ne Lupins beschlie\u00dft der Meisterdieb Assane Diop, seinen Vater zu r\u00e4chen, dem von einer reichen Familie gro\u00dfes Unrecht zugef\u00fcgt wurde.", "popularity": 715.54100000000005, "original_name": "Lupin", "backdrop_path": "/lbWUCXIeoVXowAtLlAVR3aeHjkT.jpg", "vote_average": 8.0999999999999996, "vote_count": 277, "first_air_date": "2021-01-08", "original_language": "fr", "id": 96677, "genre_ids": [80, 18, 9648]}, {"origin_country": ["US"], "poster_path": "/clnyhPqj1SNgpAdeSS6a6fwE6Bo.jpg", "name": "Grey's Anatomy", "overview": "Die Serie erz\u00e4hlt die Geschichte von f\u00fcnf jungen Assistenz\u00e4rzten des fiktiven Krankenhauses Seattle Grace Hospital in Seattle. Im Mittelpunkt steht die junge \u00c4rztin Meredith Grey, die zusammen mit ihren Kollegen Cristina Yang, Isobel \"Izzie\" Stevens, George O'Malley und Alex Karev ihre Ausbildung in der Chirurgie absolviert. Im Kern der Handlung stehen die verschiedenen Beziehungen der Assistenz\u00e4rzte untereinander und mit ihren Stationsober\u00e4rzten.", "popularity": 654.76900000000001, "original_name": "Grey's Anatomy", "backdrop_path": "/edmk8xjGBsYVIf4QtLY9WMaMcXZ.jpg", "vote_average": 8.1999999999999993, "vote_count": 4994, "first_air_date": "2005-03-27", "original_language": "en", "id": 1416, "genre_ids": [18]}, {"origin_country": ["US"], "poster_path": "/lIFqnPApyfGJBGJ7DFYe9N2TJ8F.jpg", "name": "Chilling Adventures of Sabrina", "overview": "Halbhexe Sabrina Spellman lebt als sterbliche Teenagerin und Nachfahrin der Kirche der Nacht zwischen zwei Welten. Magie und Unheil sind eine spannende Mischung.", "popularity": 641.00699999999995, "original_name": "Chilling Adventures of Sabrina", "backdrop_path": "/8AdmUPTyidDebwIuakqkSt6u1II.jpg", "vote_average": 8.4000000000000004, "vote_count": 2165, "first_air_date": "2018-10-26", "original_language": "en", "id": 79242, "genre_ids": [9648, 10765, 18]}, {"origin_country": ["US"], "poster_path": "/uYHdIs5O8tiU5p6MvUPd2jElOH6.jpg", "name": "The Umbrella Academy", "overview": "Entfremdete Geschwister mit Superkr\u00e4ften entdecken nach dem Tod ihres Vaters schockierende Familiengeheimnisse und eine ernste Bedrohung f\u00fcr die Menschheit.", "popularity": 553.27200000000005, "original_name": "The Umbrella Academy", "backdrop_path": "/mE3zzMkpP8yqlkzdjPsQmJHceoe.jpg", "vote_average": 8.6999999999999993, "vote_count": 5477, "first_air_date": "2019-02-15", "original_language": "en", "id": 75006, "genre_ids": [10759, 10765, 18]}, {"origin_country": ["US"], "poster_path": "/1sBx2Ew4WFsa1YY32vlHt079O03.jpg", "name": "Lucifer", "overview": "Lucifer, der charmante, charismatische und h\u00f6llisch gut aussehende allererste gefallene Engel, der, nach einer zunehmend langweiligen und trostlosen Zeit in der H\u00f6lle in Los Angeles Unterschlupf sucht. Dort setzt er fortan seine Gabe zur Beeinflussung Anderer ein, um B\u00f6sewichte zu bestrafen. Doch je l\u00e4nger er der Unterwelt fern bleibt desto st\u00e4rker w\u00e4chst die Gefahr, dass das gr\u00f6\u00dfte \u00dcbel der Menschheit entkommen k\u00f6nnte.", "popularity": 549.03200000000004, "original_name": "Lucifer", "backdrop_path": "/ta5oblpMlEcIPIS2YGcq9XEkWK2.jpg", "vote_average": 8.5, "vote_count": 7152, "first_air_date": "2016-01-25", "original_language": "en", "id": 63174, "genre_ids": [80, 10765]}, {"origin_country": ["US"], "poster_path": "/qaewZKBKmXjb4ZfFBb1LCug6BE8.jpg", "name": "Bridgerton", "overview": "Diese von den Bestsellern von Julia Quinn inspirierte Serie begleitet die acht Geschwister der Familie Bridgerton in der Londoner High Society auf der Suche nach Liebe.", "popularity": 542.88400000000001, "original_name": "Bridgerton", "backdrop_path": "/m7FqiUOvsSk7Ulg2oRMfFGcLeT9.jpg", "vote_average": 8.3000000000000007, "vote_count": 493, "first_air_date": "2020-12-25", "original_language": "en", "id": 91239, "genre_ids": [18]}, {"origin_country": ["US"], "poster_path": "/w6XiuRK5QQaLNmIqDRCWOpEcHwi.jpg", "name": "The Stand", "overview": "In The Stand wird die Menschheit von einer Pandemie dezimiert und in den ewigen Kampf von Gut und B\u00f6se verstrickt. Das Schicksal der Menschen ruht auf den Schultern der 108-j\u00e4hrigen Mother Abigail und einer Handvoll \u00dcberlebender. Ihre schlimmsten Alptr\u00e4ume werden durch einen Mann mit einem t\u00f6dlichen L\u00e4cheln und unaussprechlichen F\u00e4higkeiten verk\u00f6rpert: Randall Flagg, der Dark Man.", "popularity": 512.57799999999997, "original_name": "The Stand", "backdrop_path": "/b7MUOLzo9kxQRSjGHwp589HMdxI.jpg", "vote_average": 7.0999999999999996, "vote_count": 140, "first_air_date": "2020-12-17", "original_language": "en", "id": 86382, "genre_ids": [10765, 18]}, {"origin_country": [], "poster_path": "/gHBtyMdHbWoM3tpM8VZymer8HfF.jpg", "name": "The Wilds", "overview": "Eine Gruppe Teenies muss, nach einem Flugzeugabsturz um ihr \u00dcberleben k\u00e4mpfen. Zwischen Streit und Zusammenhalt, schwei\u00dft sie die Hoffnung auf Rettung mit der Zeit immer weiter zusammen. Doch Sie alle haben Ihre Geheimnisse, welche mit der Zeit ans Licht kommen. Dies ist jedoch nur ein Konflikt, denn in Wirklichkeit war es kein Unfall, der sie auf die Insel gebracht hat.", "popularity": 495.83699999999999, "original_name": "The Wilds", "backdrop_path": "/rgBxEVr44C00hBg3jLicxWMy9yy.jpg", "vote_average": 8, "vote_count": 133, "first_air_date": "2020-12-11", "original_language": "en", "id": 113367, "genre_ids": [9648, 18]}, {"origin_country": ["US"], "poster_path": "/xYsNIxKD7JTg3hi03U2TlBFTGKI.jpg", "name": "De brutas, nada", "overview": "", "popularity": 420.471, "original_name": "De brutas, nada", "backdrop_path": "/y4Ia5VeYMWKFMk04lrOXkHrzwTt.jpg", "vote_average": 8.1999999999999993, "vote_count": 285, "first_air_date": "2020-06-11", "original_language": "es", "id": 111499, "genre_ids": [35, 18]}, {"origin_country": ["US"], "poster_path": "/t4IinrhH2BN7clHpEVBbHEjSB7U.jpg", "name": "Game of Thrones", "overview": "Die Handlung ist in einer fiktiven Welt angesiedelt und spielt auf den Kontinenten Westeros, den Sieben K\u00f6nigreichen sowie im Gebiet der \"Mauer\" und jenseits davon im Norden und Essos. In dieser Welt ist die L\u00e4nge der Sommer und Winter unvorhersehbar und variabel; eine Jahreszeit kann Jahre oder sogar Jahrzehnte dauern. Der Handlungsort auf dem Kontinent Westeros in den Sieben K\u00f6nigreichen \u00e4hnelt dabei stark dem mittelalterlichen Europa. Die Geschichte spielt am Ende eines langen Sommers und wird in drei Handlungsstr\u00e4ngen weitgehend parallel erz\u00e4hlt. In den Sieben K\u00f6nigreichen bauen sich zwischen den m\u00e4chtigsten Adelsh\u00e4usern des Reiches Spannungen auf, die schlie\u00dflich zum offenen Thronkampf f\u00fchren. Gleichzeitig droht der Wintereinbruch und es zeichnet sich eine Gefahr durch eine fremde Rasse im hohen Norden von Westeros ab.", "popularity": 388.68299999999999, "original_name": "Game of Thrones", "backdrop_path": "/suopoADq0k8YZr4dQXcU6pToj6s.jpg", "vote_average": 8.4000000000000004, "vote_count": 12395, "first_air_date": "2011-04-17", "original_language": "en", "id": 1399, "genre_ids": [10765, 18, 10759, 9648]}, {"origin_country": ["JP"], "poster_path": "/i0i7kGDrArtM1sCd8niZDC7iboV.jpg", "name": "Alice in Borderland", "overview": "Ein junger Videospiel-Nerd ger\u00e4t mit zwei Freunden in eine fremdartige Version von Tokio, wo sie an gef\u00e4hrlichen Spielen teilnehmen m\u00fcssen, um zu \u00fcberleben.", "popularity": 380.58300000000003, "original_name": "\u4eca\u969b\u306e\u56fd\u306e\u30a2\u30ea\u30b9", "backdrop_path": "/bKxiLRPVWe2nZXCzt6JPr5HNWYm.jpg", "vote_average": 8.4000000000000004, "vote_count": 121, "first_air_date": "2020-12-10", "original_language": "ja", "id": 110316, "genre_ids": [18, 9648, 10759, 10765]}, {"origin_country": ["US"], "poster_path": "/aBkVgChtyyJaHyZh1gfd8DbzQon.jpg", "name": "Vampire Diaries", "overview": "Die Highschool-Sch\u00fclerin Elena Gilbert hat ihre Eltern bei einem Autounfall verloren. Ihre Tante Jenna Sommers, die j\u00fcngere Schwester der Mutter, ist nach Mystic Falls gekommen, um sich um sie und ihren j\u00fcngeren Bruder Jeremy zu k\u00fcmmern. Als der neue Mitsch\u00fcler Stefan Salvatore auf der Bildfl\u00e4che erscheint, weckt er sofort Elenas Interesse. Sie ahnt nicht, dass es sich bei Stefan um einen bereits jahrhundertealten Vampir handelt. Als dann noch Stefans \u00e4lterer Bruder Damon auftaucht, der von Elena ebenfalls angezogen ist, \u00fcberschlagen sich die Ereignisse. Stefan wird misstrauisch, denn er wei\u00df, dass Damon nichts Gutes im Sinn hat. Elena wird in eine Welt hineingeworfen, von deren Existenz sie bislang nichts geahnt hat.", "popularity": 379.80099999999999, "original_name": "The Vampire Diaries", "backdrop_path": "/k7T9xRyzP41wBVNyNeLmh8Ch7gD.jpg", "vote_average": 8.3000000000000007, "vote_count": 4852, "first_air_date": "2009-09-10", "original_language": "en", "id": 18165, "genre_ids": [18, 14, 27, 10749]}, {"origin_country": ["ES"], "poster_path": "/mjHka6e9mg1zjgXTvsHMgPaYf2K.jpg", "name": "Deine letzte Stunde", "overview": "In \u201eDeine letzte Stunde\u201c, das auf einer Buchvorlage von Carlos Montero basiert, steht die junge Lehrerin Raquel (Inma Cuesta) im Zentrum. Sie gibt ihrer Ehe eine zweite Chance und zieht in die Heimat ihres Mannes. Dort beginnt sie an einer Oberschule ihren neuen Job, bei dem sie alles andere als willkommen gehei\u00dfen wird. Bald erf\u00e4hrt sie, dass ihre Vorg\u00e4ngerin erst vor kurzem ums Leben gekommen ist. War es Selbstmord? Und was hatten die Sch\u00fclerinnen und Sch\u00fcler damit zu tun? Muss sie um ihr eigenes Leben f\u00fcrchten?", "popularity": 375.05200000000002, "original_name": "El desorden que dejas", "backdrop_path": "/8FDb3FUNGEeiPmHG00Onlu6xVnE.jpg", "vote_average": 6.4000000000000004, "vote_count": 37, "first_air_date": "2020-12-11", "original_language": "es", "id": 94413, "genre_ids": [18, 9648]}, {"origin_country": ["US"], "poster_path": "/yqYITBxRpsSLjScfFz1o35pelFw.jpg", "name": "Die Simpsons", "overview": "Die Simpsons sind eine amerikanische Durchschnittsfamilie. Immer neue Geschichten gibt es \u00fcber Homer, Marge, Bart, Lisa und Maggie und \u00fcber die weiteren Bewohner von Springfield zu erz\u00e4hlen.", "popularity": 353.07799999999997, "original_name": "The Simpsons", "backdrop_path": "/hpU2cHC9tk90hswCFEpf5AtbqoL.jpg", "vote_average": 7.7999999999999998, "vote_count": 5815, "first_air_date": "1989-12-16", "original_language": "en", "id": 456, "genre_ids": [16, 35, 10751, 18]}]}