{"total_results": 1962, "total_pages": 99, "page": 1, "results": [{"origin_country": [], "poster_path": "/bpLHmWfmEhQBAiQLthSRXzp6iYN.jpg", "name": "Mia and Me", "overview": "Plunged into a fantastic fairy tale turned real, Mia must find the strength within herself to save a race of unicorns - and an entire world.", "popularity": 22.431999999999999, "original_name": "Mia and Me", "backdrop_path": "/16Uba0RD4f8SJ4OQJyjTZqy2xB7.jpg", "vote_average": 6.2000000000000002, "vote_count": 20, "first_air_date": "2012-08-06", "media_type": "tv", "original_language": "en", "id": 52051, "genre_ids": [16, 10762, 10751]}, {"poster_path": "/nEmw1fZOQp2qFGdrak3ipCbe31G.jpg", "title": "Mia", "overview": "Mia recounts her most intimate confessions, uncensored, in her first approach to a totally new world of domination and submission.", "release_date": "2017-12-17", "popularity": 14.073, "original_title": "Mia", "backdrop_path": "/9aUcoMDARruvlgC0MQXLCsznqbp.jpg", "vote_count": 6, "video": true, "adult": false, "vote_average": 5.7000000000000002, "media_type": "movie", "genre_ids": [18, 99], "id": 537971, "original_language": "es"}, {"poster_path": "/zdUA4FNHbXPadzVOJiU0Rgn6cHR.jpg", "title": "Mamma Mia!", "overview": "An independent, single mother who owns a small hotel on a Greek island is about to marry off the spirited young daughter she's raised alone. But, the daughter has secretly invited three of her mother's ex-lovers in the hopes of finding her biological father.", "release_date": "2008-07-02", "popularity": 18.300000000000001, "original_title": "Mamma Mia!", "backdrop_path": "/dsSodbJrJoafzMz4zheuKZ4PeUw.jpg", "vote_count": 4871, "video": false, "adult": false, "vote_average": 6.9000000000000004, "media_type": "movie", "genre_ids": [35, 10749], "id": 11631, "original_language": "en"}, {"poster_path": "/zXfwBeYe0RnqsJ0dnBoFTB4SSrG.jpg", "title": "Mia and the White Lion", "overview": "A young girl from London moves to Africa with her parents where she befriends a lion cub.", "release_date": "2018-12-26", "popularity": 17.956, "original_title": "Mia et le lion blanc", "backdrop_path": "/bGgcTfGf8jggZZotx3uKpRF2zbv.jpg", "vote_count": 604, "video": false, "adult": false, "vote_average": 7.4000000000000004, "media_type": "movie", "genre_ids": [12, 10751], "id": 498248, "original_language": "fr"}, {"poster_path": "/rwPgE6fLxuJmPWi8fFjgENJMAjr.jpg", "title": "On My Skin", "overview": "The incredible true story behind the most controversial Italian court cases in recent years. Stefano Cucchi was arrested for a minor crime and mysteriously found dead during his detention. In one week's time, a family is changed forever.", "release_date": "2018-09-12", "popularity": 12.035, "original_title": "Sulla mia pelle", "backdrop_path": "/lpuehRS74pgVYIQ6ZQ2fIAaoAvo.jpg", "vote_count": 1562, "video": false, "adult": false, "vote_average": 8.0999999999999996, "media_type": "movie", "genre_ids": [18], "id": 538362, "original_language": "it"}, {"poster_path": "/932SJChfpM2flxfnteAoGmAHrqd.jpg", "title": "Mia madre", "overview": "Margherita, a director in the middle of an existential crisis, has to deal with the inevitable and still unacceptable loss of her mother.", "release_date": "2015-04-16", "popularity": 8.4610000000000003, "original_title": "Mia madre", "backdrop_path": "/2bnTiTBvnBVYosk73J29UzeuBRO.jpg", "vote_count": 257, "video": false, "adult": false, "vote_average": 6.5999999999999996, "media_type": "movie", "genre_ids": [18], "id": 315872, "original_language": "it"}, {"poster_path": "/aWicerX4Y7n7tUwRAVHsVcBBpj2.jpg", "title": "Mamma Mia! Here We Go Again", "overview": "Five years after meeting her three fathers, Sophie Sheridan prepares to open her mother\u2019s hotel. In 1979, young Donna Sheridan meets the men who each could be Sophie\u2019s biological father.", "release_date": "2018-07-09", "popularity": 20.852, "original_title": "Mamma Mia! Here We Go Again", "backdrop_path": "/8HKwxHZ23sW8wz4yb28IWnAM1M6.jpg", "vote_count": 2516, "video": false, "adult": false, "vote_average": 7.2000000000000002, "media_type": "movie", "genre_ids": [35, 10749], "id": 458423, "original_language": "en"}, {"origin_country": ["US"], "poster_path": "/xs2FBianSViT25SacXiSKKpb3gU.jpg", "name": "Zac & Mia", "overview": "\"Zac and Mia\", based on the novel by A.J. Betts, about 2 teens battling cancer in the same hospital. In the real world, Zac and Mia would have pretty much nothing in common, but in the hospital, where they're the only 2 teens on the ward, they develop an unbreakable bond. If cancer is the variable that changed everything, the only constant is their ever-deepening need for one another.", "popularity": 4.9969999999999999, "original_name": "Zac & Mia", "backdrop_path": "/qUZ3eNaUoZojpP6BtedSzoFaKUc.jpg", "vote_average": 8, "vote_count": 2, "first_air_date": "2017-11-07", "media_type": "tv", "original_language": "en", "id": 80858, "genre_ids": [18]}, {"known_for": [{"origin_country": ["US"], "poster_path": "/aBkVgChtyyJaHyZh1gfd8DbzQon.jpg", "name": "The Vampire Diaries", "overview": "The story of two vampire brothers obsessed with the same girl, who bears a striking resemblance to the beautiful but ruthless vampire they knew and loved in 1864.", "original_name": "The Vampire Diaries", "backdrop_path": "/k7T9xRyzP41wBVNyNeLmh8Ch7gD.jpg", "vote_average": 8.3000000000000007, "vote_count": 4974, "first_air_date": "2009-09-10", "media_type": "tv", "original_language": "en", "id": 18165, "genre_ids": [18, 14, 27, 10749]}, {"poster_path": "/rpvvul2liWeenNtyfwf2X6HtCwe.jpg", "title": "Not Another Teen Movie", "overview": "On a bet, a gridiron hero at John Hughes High School sets out to turn a bespectacled plain Jane into a beautiful and popular prom queen in this outrageous send-up of the teen movie genre.", "release_date": "2001-12-07", "original_title": "Not Another Teen Movie", "backdrop_path": "/2Dxks7F4HWadUlZqvMpdAu5WMoa.jpg", "vote_count": 1309, "video": false, "adult": false, "vote_average": 5.7000000000000002, "media_type": "movie", "genre_ids": [35], "id": 11397, "original_language": "en"}, {"origin_country": ["US"], "poster_path": "/98RYSYsRNKWgrAAFBn0WfploUG7.jpg", "name": "Star Trek: Discovery", "overview": "Follow the voyages of Starfleet on their missions to discover new worlds and new life forms, and one Starfleet officer who must learn that to truly understand all things alien, you must first understand yourself.", "original_name": "Star Trek: Discovery", "backdrop_path": "/p3McpsDNTNmpbkNBKdNxOFZJeKX.jpg", "vote_average": 7.0999999999999996, "vote_count": 939, "first_air_date": "2017-09-24", "media_type": "tv", "original_language": "en", "id": 67198, "genre_ids": [10765, 10759]}], "name": "Mia Kirshner", "gender": 1, "popularity": 14.305, "adult": false, "media_type": "person", "profile_path": "/sCeZnMgqNNLG4mDeGUotGQzFSR0.jpg", "id": 18658, "known_for_department": "Acting"}, {"poster_path": "/uAZMY2je5PSoLrjvMLBZanKGXca.jpg", "title": "Mia Martini - I Am Mia", "overview": "The movie is a biopic about Mia Martini, an italian singer who died in 1995.", "release_date": "2019-01-14", "popularity": 5.5739999999999998, "original_title": "Io sono Mia", "backdrop_path": "/11bRCQn6TvqUJxraI52kAQQNA72.jpg", "vote_count": 136, "video": false, "adult": false, "vote_average": 7.2999999999999998, "media_type": "movie", "genre_ids": [99, 36], "id": 569543, "original_language": "it"}, {"known_for": [{"poster_path": "/4xmndWnTYTE4bDdlWrkZyaGcZlo.jpg", "title": "Everest", "overview": "Inspired by the incredible events surrounding a treacherous attempt to reach the summit of the world's highest mountain, \"Everest\" documents the awe-inspiring journey of two different expeditions challenged beyond their limits by one of the fiercest snowstorms ever encountered by mankind. Their mettle tested by the harshest of elements found on the planet, the climbers will face nearly impossible obstacles as a lifelong obsession becomes a breathtaking struggle for survival.", "release_date": "2015-09-10", "original_title": "Everest", "backdrop_path": "/m4JzTSFDqWnvLkjTKIm4kyDXbTO.jpg", "vote_count": 3629, "video": false, "adult": false, "vote_average": 6.7999999999999998, "media_type": "movie", "genre_ids": [12, 18, 28], "id": 253412, "original_language": "en"}, {"poster_path": "/d4fXuJS3zZcAZfz2HYDtnwqtnwn.jpg", "title": "A Cure for Wellness", "overview": "An ambitious young executive is sent to retrieve his company's CEO from an idyllic but mysterious \"wellness center\" at a remote location in the Swiss Alps but soon suspects that the spa's miraculous treatments are not what they seem.", "release_date": "2016-12-10", "original_title": "A Cure for Wellness", "backdrop_path": "/uXx9wjfJEzLlfqB8GW67SYBrhVT.jpg", "vote_count": 2860, "video": false, "adult": false, "vote_average": 6.2999999999999998, "media_type": "movie", "genre_ids": [27, 9648, 878, 53], "id": 340837, "original_language": "en"}, {"poster_path": "/fYLbO4UpumgNHVnsyDQkXG87Q1k.jpg", "title": "Nymphomaniac: Vol. II", "overview": "The continuation of Joe's sexually dictated life delves into the darker aspects of her adult life and what led to her being in Seligman's care.", "release_date": "2013-12-25", "original_title": "Nymphomaniac: Vol. II", "backdrop_path": "/5n417Ff5GXOGCOKj3ZLMRAxEP0o.jpg", "vote_count": 2112, "video": false, "adult": false, "vote_average": 6.7999999999999998, "media_type": "movie", "genre_ids": [18, 9648], "id": 249397, "original_language": "en"}], "name": "Mia Goth", "gender": 1, "popularity": 9.8100000000000005, "adult": false, "media_type": "person", "profile_path": "/6DrarltGDYsmqV0IDgSfsDC6sdH.jpg", "id": 1137824, "known_for_department": "Acting"}, {"known_for": [{"poster_path": "/o0kre9wRCZz3jjSjaru7QU0UtFz.jpg", "title": "Alice in Wonderland", "overview": "Alice, an unpretentious and individual 19-year-old, is betrothed to a dunce of an English nobleman. At her engagement party, she escapes the crowd to consider whether to go through with the marriage and falls down a hole in the garden after spotting an unusual rabbit. Arriving in a strange and surreal place called 'Underland,' she finds herself in a world that resembles the nightmares she had as a child, filled with talking animals, villainous queens and knights, and frumious bandersnatches. Alice realizes that she is there for a reason \u2013 to conquer the horrific Jabberwocky and restore the rightful queen to her throne.", "release_date": "2010-03-03", "original_title": "Alice in Wonderland", "backdrop_path": "/20pkC7yJdCV4J1IMKfsCT9QU7zV.jpg", "vote_count": 10969, "video": false, "adult": false, "vote_average": 6.5999999999999996, "media_type": "movie", "genre_ids": [10751, 14, 12], "id": 12155, "original_language": "en"}, {"poster_path": "/uGsjYHPZ0NbI7GHrHlq98D4kFYB.jpg", "title": "Alice Through the Looking Glass", "overview": "Alice Kingsleigh returns to Underland and faces a new adventure in saving the Mad Hatter.", "release_date": "2016-05-25", "original_title": "Alice Through the Looking Glass", "backdrop_path": "/A6d09KtZKdVGSg0gzsldjDwwvhD.jpg", "vote_count": 4978, "video": false, "adult": false, "vote_average": 6.5, "media_type": "movie", "genre_ids": [12, 10751, 14], "id": 241259, "original_language": "en"}, {"poster_path": "/f9TOb5anVwZeSbYjU1qNxPk3KUk.jpg", "title": "Crimson Peak", "overview": "In the aftermath of a family tragedy, an aspiring author is torn between love for her childhood friend and the temptation of a mysterious outsider. Trying to escape the ghosts of her past, she is swept away to a house that breathes, bleeds\u2026 and remembers.", "release_date": "2015-10-13", "original_title": "Crimson Peak", "backdrop_path": "/xMlx5ELIY4ugh7XGIfoDczYsYUw.jpg", "vote_count": 3730, "video": false, "adult": false, "vote_average": 6.5999999999999996, "media_type": "movie", "genre_ids": [27, 53, 10749, 9648], "id": 201085, "original_language": "en"}], "name": "Mia Wasikowska", "gender": 1, "popularity": 11.161, "adult": false, "media_type": "person", "profile_path": "/1slhjKDGrjYRKesNLvVYPCbUvBV.jpg", "id": 76070, "known_for_department": "Acting"}, {"origin_country": ["AR"], "poster_path": "/o0XpOOIThQafMwukAIs9Hed2JsI.jpg", "name": "Esperanza Mia", "overview": "", "popularity": 5.9969999999999999, "original_name": "Esperanza Mia", "backdrop_path": "/8mRJ9WSRVGW9j0EeBWePs9ogBfc.jpg", "vote_average": 6.2000000000000002, "vote_count": 3, "first_air_date": "2015-04-06", "media_type": "tv", "original_language": "es", "id": 63055, "genre_ids": [18, 35]}, {"poster_path": "/mgV7JI7A34rMjgA6lk6QeCif45e.jpg", "title": "Daughter of Mine", "overview": "A daughter torn between two mothers, one who raised her with love and her biological mother, who instinctively claims her back.", "release_date": "2018-02-22", "popularity": 4.9630000000000001, "original_title": "Figlia mia", "backdrop_path": "/a5Ttpgpa3YD6IGjSbIDuBBbWDwj.jpg", "vote_count": 43, "video": false, "adult": false, "vote_average": 6.4000000000000004, "media_type": "movie", "genre_ids": [18], "id": 492344, "original_language": "it"}, {"known_for": [{"poster_path": "/kKhvDqvxaXSJXWjVKjCTeHvNKd3.jpg", "title": "Ferris Bueller's Day Off", "overview": "After high school slacker Ferris Bueller successfully fakes an illness in order to skip school for the day, he goes on a series of adventures throughout Chicago with his girlfriend Sloane and best friend Cameron, all the while trying to outwit his wily school principal and fed-up sister.", "release_date": "1986-06-11", "original_title": "Ferris Bueller's Day Off", "backdrop_path": "/leehjwM57DKJ79XMUll4oAF0kin.jpg", "vote_count": 3356, "video": false, "adult": false, "vote_average": 7.5999999999999996, "media_type": "movie", "genre_ids": [35], "id": 9377, "original_language": "en"}, {"poster_path": "/9IY82IPNOOWVCirJLYxrL2ayQGf.jpg", "title": "Legend", "overview": "Set in a timeless mythical forest inhabited by fairies, goblins, unicorns and mortals, this fantastic story follows a mystical forest dweller, chosen by fate, to undertake a heroic quest. He must save the beautiful Princess  Lili and defeat the demonic Lord of Darkness, or the world will be plunged into a never-ending ice age.", "release_date": "1985-07-19", "original_title": "Legend", "backdrop_path": "/36YkKuUQQuSveMAjC23UGNuqGX6.jpg", "vote_count": 758, "video": false, "adult": false, "vote_average": 6.2999999999999998, "media_type": "movie", "genre_ids": [12, 14], "id": 11976, "original_language": "en"}, {"poster_path": "/qDjne2UffjOpZAg9cFmzteWqhd3.jpg", "title": "Timecop", "overview": "An officer for a security agency that regulates time travel, must fend for his life against a shady politician who has a tie to his past.", "release_date": "1994-09-15", "original_title": "Timecop", "backdrop_path": "/hbhro9tjyhVVVrYjI0AxOl4huqk.jpg", "vote_count": 709, "video": false, "adult": false, "vote_average": 5.9000000000000004, "media_type": "movie", "genre_ids": [53, 878, 28, 80], "id": 8831, "original_language": "en"}], "name": "Mia Sara", "gender": 1, "popularity": 9.3759999999999994, "adult": false, "media_type": "person", "profile_path": "/eu9mPnRpSac8mU4JcHfQfhQsgTc.jpg", "id": 29091, "known_for_department": "Acting"}, {"origin_country": ["ES"], "poster_path": null, "name": "En la tuya o en la m\u00eda", "overview": "", "popularity": 19.635000000000002, "original_name": "En la tuya o en la m\u00eda", "backdrop_path": null, "vote_average": 0, "vote_count": 0, "first_air_date": "2015-09-09", "media_type": "tv", "original_language": "es", "id": 66352, "genre_ids": [10767]}, {"poster_path": "/ugJXv1qfiHTSuboIyMoOHMhxHER.jpg", "title": "Penalty Kick", "overview": "How far does a soccer fan goes for his beloved national team? Mariano C\u00e1rdenas will risk his job, wife and family to support his soccer team during the World Cup qualifiers.", "release_date": "2018-03-22", "popularity": 8.3320000000000007, "original_title": "Tuya, Mia, Te la apuesto", "backdrop_path": "/9Epqva6J7JkUrrrfszPfSXxWRgQ.jpg", "vote_count": 8, "video": false, "adult": false, "vote_average": 5.9000000000000004, "media_type": "movie", "genre_ids": [35], "id": 510262, "original_language": "es"}, {"poster_path": "/2LiwxKzy1GscvsBhLmq8u1FSVTF.jpg", "title": "My House My House...", "overview": "Bartoloni from Milan exchanges apartments with his colleague from Rome and moves toa new place. And everything could be good, if not unexpected trouble with which he will have to face ..", "release_date": "1988-03-18", "popularity": 2.4849999999999999, "original_title": "Casa mia, casa mia...", "backdrop_path": "/wvFdPYM0qYujPKt9pLp0tK31H0P.jpg", "vote_count": 19, "video": false, "adult": false, "vote_average": 6.2999999999999998, "media_type": "movie", "genre_ids": [35], "id": 45025, "original_language": "it"}, {"origin_country": ["CL", "ES"], "poster_path": "/q3lUWZSxNo7TWNxHwqHs0PQTkGA.jpg", "name": "In\u00e9s del alma m\u00eda", "overview": "Romantic historical drama based on the true story of the first woman \"conquistador\" who went to the South American land that would become Chile, and helped to form the city of Santiago.", "popularity": 6.3399999999999999, "original_name": "In\u00e9s del alma m\u00eda", "backdrop_path": null, "vote_average": 7, "vote_count": 12, "first_air_date": "2020-07-31", "media_type": "tv", "original_language": "es", "id": 98522, "genre_ids": [18]}, {"known_for": [{"poster_path": "/eexokDJNgyfpdTH30s102lSuc9A.jpg", "title": "The 100 Year-Old Man Who Climbed Out the Window and Disappeared", "overview": "After living a long and colorful life, Allan Karlsson finds himself stuck in a nursing home. On his 100th birthday, he leaps out a window and begins an unexpected journey.", "release_date": "2013-12-25", "original_title": "Hundra\u00e5ringen som klev ut genom f\u00f6nstret och f\u00f6rsvann", "backdrop_path": "/xEwzTC86KVp8sbwsYZZX2sNTkWR.jpg", "vote_count": 672, "video": false, "adult": false, "vote_average": 6.7999999999999998, "media_type": "movie", "genre_ids": [12, 35, 18], "id": 145247, "original_language": "sv"}, {"poster_path": "/1xOgaXxe8ckgxGZSd88jKLcWgoA.jpg", "title": "Solsidan", "overview": "In this movie adaptation of the TV-Show by the same name, we join the three couples in a comedy about divorces, love, child longing, weird parents and unwritten bathing rules in Torekov.", "release_date": "2017-12-01", "original_title": "Solsidan", "backdrop_path": "/ggC2oagq8V8SUV5icDzSb3vbdX4.jpg", "vote_count": 20, "video": false, "adult": false, "vote_average": 6.2999999999999998, "media_type": "movie", "genre_ids": [35], "id": 468703, "original_language": "sv"}, {"poster_path": "/mbEmgA5Ct6uQeCBh3B326bjdEjD.jpg", "title": "Metal Brothers", "overview": "Br\u00f6derna H\u00e5rdrock is a film about two brothers who are planning a heavy metal convention in their sleepy village. Their mother, the village priest, worries about them and wants them to settle down and have families. A young female teacher and line dance instructor in the village sets both their hearts beating faster and, unaware of each other's feelings, they enter a battle to win her affections.", "release_date": "2012-12-25", "original_title": "Mammas pojkar", "vote_count": 20, "video": false, "adult": false, "vote_average": 5, "media_type": "movie", "genre_ids": [35], "id": 163590, "original_language": "sv"}], "name": "Mia Sk\u00e4ringer", "gender": 1, "popularity": 4.7679999999999998, "adult": false, "media_type": "person", "profile_path": "/382hw1VL4x7cTl8kxnRRsavCoXB.jpg", "id": 135692, "known_for_department": "Acting"}]}