{"total_results": 10000, "total_pages": 500, "page": 1, "results": [{"poster_path": "/2W4ZvACURDyhiNnSIaFPHfNbny3.jpg", "title": "Skylines", "overview": "", "release_date": "2020-12-18", "popularity": 2769.1999999999998, "original_title": "Skylines", "backdrop_path": "/3ombg55JQiIpoPnXYb2oYdr6DtP.jpg", "vote_count": 81, "video": false, "adult": false, "vote_average": 5.9000000000000004, "genre_ids": [878, 28], "id": 560144, "original_language": "en"}, {"poster_path": "/8UlWHLMpgZm9bx6QYh0NFoq67TZ.jpg", "title": "Wonder Woman 1984", "overview": "Diana Prince wird w\u00e4hrend des Kalten Krieges in den 1980ern in einen Konflikt mit der Sowjetunion verwickelt und trifft dabei auf eine ebenb\u00fcrtige Gegenspielerin namens Cheetah.", "release_date": "2020-12-16", "popularity": 2286.9899999999998, "original_title": "Wonder Woman 1984", "backdrop_path": "/srYya1ZlI97Au4jUYAktDe3avyA.jpg", "vote_count": 2878, "video": false, "adult": false, "vote_average": 7.0999999999999996, "genre_ids": [14, 28, 12], "id": 464052, "original_language": "en"}, {"poster_path": "/3EjPRMUMggmd6ePd2lAtXzAJKuy.jpg", "title": "Soul", "overview": "Joe Gardner ist ein Mittelschullehrer mit einer Liebe zur Jazzmusik. Nach einem erfolgreichen Auftritt im Half Note Club wird er pl\u00f6tzlich in einen Unfall verwickelt, der seine Seele von seinem K\u00f6rper trennt und in das You Seminar transportiert wird, ein Zentrum, in dem Seelen sich entwickeln und Leidenschaften gewinnen, bevor sie zu einem neugeborenen Kind transportiert werden. Joe muss die Hilfe der anderen Seelen in Ausbildung in Anspruch nehmen, wie 22, eine Seele, die \u00c4onen im You Seminar verbracht hat, um zur\u00fcck auf die Erde zu gelangen.", "release_date": "2020-12-25", "popularity": 2212.1500000000001, "original_title": "Soul", "backdrop_path": "/kf456ZqeC45XTvo6W9pW5clYKfQ.jpg", "vote_count": 3854, "video": false, "adult": false, "vote_average": 8.3000000000000007, "genre_ids": [16, 35, 18, 10402, 14], "id": 508442, "original_language": "en"}, {"poster_path": "/13B6onhL6FzSN2KaNeQeMML05pS.jpg", "title": "Breach", "overview": "", "release_date": "2020-12-17", "popularity": 1683.2909999999999, "original_title": "Breach", "backdrop_path": "/nz8xWrTKZzA5A7FgxaM4kfAoO1W.jpg", "vote_count": 67, "video": false, "adult": false, "vote_average": 4.2000000000000002, "genre_ids": [28, 878], "id": 651571, "original_language": "en"}, {"poster_path": "/t7EUMSlfUN3jUSZUJOLURAzJzZs.jpg", "title": "Shadow in the Cloud", "overview": "", "release_date": "2020-12-31", "popularity": 1289.6020000000001, "original_title": "Shadow in the Cloud", "backdrop_path": "/aHYUj0hICtWZ5tPiCIm6pWUcjYK.jpg", "vote_count": 154, "video": false, "adult": false, "vote_average": 6, "genre_ids": [28, 18, 27, 10752], "id": 675327, "original_language": "en"}, {"poster_path": "/kIHgjAkuzvKBnmdstpBOo4AfZah.jpg", "title": "Miraculous World: New York, United Heroez", "overview": "Eine Klassenfahrt nach New York ist f\u00fcr Marinette die Chance, eine kleine Pause vom Superhelden-Dasein zu machen. Fernab von allen Superschurken in Paris kann sie wie ein ganz normaler Teenager Spa\u00df mit ihren KlassenkameradInnen haben \u2013 und eventuell sogar Adrien ihre Liebe gestehen? Hawk Moth hat jedoch andere Pl\u00e4ne und so sind Ladybug und Cat Noir auch auf der anderen Seite des Atlantik gefordert. Sie m\u00fcssen sich mit neuen Superhelden aus den USA zusammentun, um den Frieden wiederherzustellen!", "release_date": "2020-10-10", "popularity": 1139.0840000000001, "original_title": "Miraculous World: New York, United HeroeZ", "backdrop_path": "/yR27bZPIkNhpGEIP3jKV2EifTgo.jpg", "vote_count": 290, "video": false, "adult": false, "vote_average": 8.5, "genre_ids": [16, 10751], "id": 755812, "original_language": "fr"}, {"poster_path": "/inLmBfTD58OqBjoZ0ChMG1GlzMA.jpg", "title": "Die Croods - Alles auf Anfang", "overview": "Nachdem sie ihre H\u00f6hle verlassen haben, treffen die Croods auf ihre gr\u00f6\u00dfte Bedrohung seit ihrem Weggang: eine andere Familie, die Bessermanns, die behaupten, besser zu sein und sich weiterzuentwickeln. Aber nachdem Eep und die einzige Tochter der Bessermanns ausrei\u00dfen, m\u00fcssen die beiden Familien ihre Differenzen beiseite legen, um sie zu retten.", "release_date": "2020-11-25", "popularity": 978.99900000000002, "original_title": "The Croods: A New Age", "backdrop_path": "/cjaOSjsjV6cl3uXdJqimktT880L.jpg", "vote_count": 1201, "video": false, "adult": false, "vote_average": 7.7000000000000002, "genre_ids": [12, 14, 10751, 16], "id": 529203, "original_language": "en"}, {"poster_path": "/jzhbZZWHMOxVF9uz8lNilDEx8dl.jpg", "title": "Batman: Soul of the Dragon", "overview": "", "release_date": "2021-01-12", "popularity": 906.51400000000001, "original_title": "Batman: Soul of the Dragon", "backdrop_path": "/jvRewPpawHAfBW38EzHoFdTVEez.jpg", "vote_count": 40, "video": false, "adult": false, "vote_average": 7.5999999999999996, "genre_ids": [16, 28, 12, 80, 14], "id": 732450, "original_language": "en"}, {"poster_path": "/quqEuH1fhC3SbhJx00hN5lDNaEF.jpg", "title": "\u6025\u5148\u950b", "overview": "Das geheime Sicherheitsunternehmen Vanguard ist die letzte \u00dcberlebenshoffnung f\u00fcr einen Buchhalter, nachdem dieser von der t\u00f6dlichsten S\u00f6ldnerorganisation der Welt angegriffen wird.", "release_date": "2020-09-30", "popularity": 889.29399999999998, "original_title": "\u6025\u5148\u950b", "backdrop_path": "/fX8e94MEWSuTJExndVYxKsmA4Hw.jpg", "vote_count": 141, "video": false, "adult": false, "vote_average": 7.0999999999999996, "genre_ids": [28, 12, 80], "id": 604822, "original_language": "zh"}, {"poster_path": "/1S21HpcKY6uQ9UAw68aICmrJaq6.jpg", "title": "We Can Be Heroes", "overview": "Aliens haben irdische Superhelden gefangen genommen. Nun m\u00fcssen deren Kinder sich zusammenraufen und ihre Eltern \u2013 und den Planeten \u2013 mit vereinten Kr\u00e4ften retten.", "release_date": "2020-12-25", "popularity": 788.67499999999995, "original_title": "We Can Be Heroes", "backdrop_path": "/UgNke0mMQhQdnX2hEu4cN83M0a.jpg", "vote_count": 264, "video": false, "adult": false, "vote_average": 6.2000000000000002, "genre_ids": [28, 14, 10751, 18, 35], "id": 615677, "original_language": "en"}, {"poster_path": "/vlOdp6EhawmR6nTEtdoUEznN7jW.jpg", "title": "W\u00e4chter der Galaxis", "overview": "Im Jahr 2070 ist das weltweite Klima vollends aus dem Gleichgewicht: Nach einem verheerenden Angriff des au\u00dferirdischen Superschurken Cherno sind Teile des Monds auf die Erde gest\u00fcrzt und die Polkappen geschmolzen. Das einzige, was die Bev\u00f6lkerung von Nahrungsmitteknappheit und Armut ablenkt, sind die spannenden Cosmoball-Turniere, zu denen das Team der Erde in einem riesigen Stadion in den Wolken antritt. Als der junge Anton aufgrund seiner besonderen F\u00e4higkeiten in die Mannschaft berufen wird, erkennt er bald, dass Cosmoball weit mehr als nur ein Spiel ist. In Wahrheit geht es darum, Chernos finalen Schlag abzuwehren und das Universum vor der vollst\u00e4ndigen Vernichtung zu retten!", "release_date": "2020-08-27", "popularity": 779.27200000000005, "original_title": "\u0412\u0440\u0430\u0442\u0430\u0440\u044c \u0413\u0430\u043b\u0430\u043a\u0442\u0438\u043a\u0438", "backdrop_path": "/ibwOX4xUndc6E90MYfglghWvO5Z.jpg", "vote_count": 77, "video": false, "adult": false, "vote_average": 5.7999999999999998, "genre_ids": [878, 12], "id": 517096, "original_language": "ru"}, {"poster_path": "/d41f6DNvOskmYyn99arQx0FdwZS.jpg", "title": "The Doorman", "overview": "Nach einem traumatischen Einsatz ist die bestens ausgebildete Soldatin Ali Gorski am Boden zerst\u00f6rt. Ein Job als Pf\u00f6rtnerin in einem edlen Apartmenthaus in New York soll sie wieder auf die Spur bringen. Sie kann nicht wissen, dass sie in K\u00fcrze wieder ihr ganzes \u00dcberlebensk\u00f6nnen anwenden werden muss: Kunstexperte Dubois hat justament in einer Wohnung des Geb\u00e4udes wertvolle Gem\u00e4lde aus einem Raubzug gebunkert. Und wird sich mit seinen Mannen von Nichts und Niemandem aufhalten lassen. Au\u00dfer von Ali vielleicht.", "release_date": "2020-10-01", "popularity": 749.57899999999995, "original_title": "The Doorman", "backdrop_path": "/9pHxv7TX0jOKNgnGMDP6RJ2m1GL.jpg", "vote_count": 125, "video": false, "adult": false, "vote_average": 6.2000000000000002, "genre_ids": [28, 53], "id": 737568, "original_language": "en"}, {"poster_path": "/onb2mk8u3fk8U9HeLLknm7022IU.jpg", "title": "Honest Thief", "overview": "", "release_date": "2020-09-03", "popularity": 716.44399999999996, "original_title": "Honest Thief", "backdrop_path": "/2M2JxEv3HSpjnZWjY9NOdGgfUd.jpg", "vote_count": 480, "video": false, "adult": false, "vote_average": 6.5999999999999996, "genre_ids": [28, 53, 80, 18], "id": 553604, "original_language": "en"}, {"poster_path": "/mSZnvJ0olvAss77b01Vf68or8xr.jpg", "title": "Copper Bill", "overview": "", "release_date": "2020-09-30", "popularity": 696.44399999999996, "original_title": "Copper Bill", "backdrop_path": "/2uw62v6FTXg3yJTOIQVcUQcp0J.jpg", "vote_count": 17, "video": false, "adult": false, "vote_average": 6.2000000000000002, "genre_ids": [80, 28, 53], "id": 685571, "original_language": "en"}, {"poster_path": "/jutsxphSGbnpxpGr23xzbf2ziQZ.jpg", "title": "Tenet", "overview": "Ein Agent wird rekrutiert, um einen besonderen Auftrag auszuf\u00fchren: Er soll den 3. Weltkrieg verhindern. Diesmal ist jedoch keine nukleare Bedrohung der Grund, sondern es muss eine Person gestoppt werden, welche die F\u00e4higkeit besitzt, die Zeit zu manipulieren.", "release_date": "2020-08-22", "popularity": 691.11500000000001, "original_title": "Tenet", "backdrop_path": "/wzJRB4MKi3yK138bJyuL9nx47y6.jpg", "vote_count": 4001, "video": false, "adult": false, "vote_average": 7.2999999999999998, "genre_ids": [28, 53, 878], "id": 577922, "original_language": "en"}, {"poster_path": "/1f3qspv64L5FXrRy0MF8X92ieuw.jpg", "title": "Monsters of Man", "overview": "", "release_date": "2020-11-19", "popularity": 648.34000000000003, "original_title": "Monsters of Man", "backdrop_path": "/z15NpieRw7jL7bKoICwLO5j7FgZ.jpg", "vote_count": 132, "video": false, "adult": false, "vote_average": 7, "genre_ids": [878], "id": 733317, "original_language": "en"}, {"poster_path": "/wVu2B58T61LAMiY68hxAA2NLcr9.jpg", "title": "Greenland", "overview": "Ein riesiger Komet rast in hoher Geschwindigkeit auf die Erde zu und soll Berechnungen zufolge vor Eintritt in die Erdatmosph\u00e4re vergl\u00fchen. Doch die Prognosen stimmen nicht \u2013 ein erstes Fragment des Kometen st\u00fcrzt nicht ins Meer, sondern zerst\u00f6rt stattdessen ganz Florida. Ger\u00fcchte, dass nur ein ausgew\u00e4hlter Kreis von Personen in Sicherheit gebracht werden kann, machen bereits die Runde, als Ingenieur John Garrity von der US-Regierung aufgefordert wird, sich sofort gemeinsam mit seiner Frau Allison und Sohn Nathan zu einer Milit\u00e4rbasis zu begeben. Von dort aus sollen sie an einen Ort ausgeflogen werden, an dem das \u00dcberleben m\u00f6glich sein soll: Gr\u00f6nland. Doch die Fahrt dorthin wird zum Spie\u00dfrutenlauf und die Familie im Chaos verzweifelnd fliehender Menschen und pl\u00fcndernden Horden auseinandergerissen. Wie sollen sie sich je wiederfinden, und wo ist man \u00fcberhaupt noch sicher?", "release_date": "2020-07-29", "popularity": 647.13699999999994, "original_title": "Greenland", "backdrop_path": "/2Fk3AB8E9dYIBc2ywJkxk8BTyhc.jpg", "vote_count": 1434, "video": false, "adult": false, "vote_average": 7.0999999999999996, "genre_ids": [28, 53], "id": 524047, "original_language": "en"}, {"poster_path": "/63Bzy91XnFsbdIIFSx9YxdV7yFE.jpg", "title": "Doris Unterwasserkamera", "overview": "Tauchen Sie unter Wasser und betrachten Sie die Unterwasserwelt von Nemo und Dory.", "release_date": "2020-12-18", "popularity": 611.38599999999997, "original_title": "Dory's Reef Cam", "backdrop_path": "/lWf1aiqDZqUbhrw8DnsfV8Ql7CP.jpg", "vote_count": 34, "video": false, "adult": false, "vote_average": 6.4000000000000004, "genre_ids": [10751, 16, 35, 12], "id": 777350, "original_language": "en"}, {"poster_path": "/6zrPzEiawaAXvCOrGtgRl6MzxpP.jpg", "title": "The Midnight Sky", "overview": "Ein einsamer Wissenschaftler in der Arktis namens Augustine versucht verzweifelt Sully und ihre Astronautenkollegen daran zu hindern nach Hause zur\u00fcckzukehren, wo sie eine mysteri\u00f6se globale Katastrophe vorfinden w\u00fcrden.", "release_date": "2020-12-10", "popularity": 587.83000000000004, "original_title": "The Midnight Sky", "backdrop_path": "/dueiWzWc81UAgnbDAyH4Gjqnh4n.jpg", "vote_count": 950, "video": false, "adult": false, "vote_average": 5.9000000000000004, "genre_ids": [18, 878], "id": 614911, "original_language": "en"}, {"poster_path": "/ukUS2Qh4SxrwYdSk0fvDsI61dqB.jpg", "title": "The Empty Man", "overview": "", "release_date": "2020-10-22", "popularity": 500.91699999999997, "original_title": "The Empty Man", "backdrop_path": "/9nm3eQY0FiPL391vlQrr4Q5WC9w.jpg", "vote_count": 50, "video": false, "adult": false, "vote_average": 6.7999999999999998, "genre_ids": [80, 18, 27], "id": 516632, "original_language": "en"}]}