{"total_results": 10000, "total_pages": 500, "page": 1, "results": [{"origin_country": ["US"], "poster_path": "/glKDfE6btIRcVB5zrjspRIs4r52.jpg", "name": "WandaVision", "overview": "Wanda Maximoff and Vision\u2014two super-powered beings living idealized suburban lives\u2014begin to suspect that everything is not as it seems.", "popularity": 2756.9400000000001, "original_name": "WandaVision", "backdrop_path": "/lOr9NKxh4vMweufMOUDJjJhCRHW.jpg", "vote_average": 8.4000000000000004, "vote_count": 1515, "first_air_date": "2021-01-15", "original_language": "en", "id": 85271, "genre_ids": [10765, 10759, 9648, 35]}, {"origin_country": ["US"], "poster_path": "/wRbjVBdDo5qHAEOVYoMWpM58FSA.jpg", "name": "Riverdale", "overview": "Set in the present, the series offers a bold, subversive take on Archie, Betty, Veronica and their friends, exploring the surreality of small-town life, the darkness and weirdness bubbling beneath Riverdale\u2019s wholesome facade.", "popularity": 1540.8340000000001, "original_name": "Riverdale", "backdrop_path": "/9hvhGtcsGhQY58pukw8w55UEUbL.jpg", "vote_average": 8.5999999999999996, "vote_count": 7977, "first_air_date": "2017-01-26", "original_language": "en", "id": 69050, "genre_ids": [18, 9648]}, {"origin_country": ["US"], "poster_path": "/obLBdhLxheKg8Li1qO11r2SwmYO.jpg", "name": "Cobra Kai", "overview": "This Karate Kid sequel series picks up 30 years after the events of the 1984 All Valley Karate Tournament and finds Johnny Lawrence on the hunt for redemption by reopening the infamous Cobra Kai karate dojo. This reignites his old rivalry with the successful Daniel LaRusso, who has been working to maintain the balance in his life without mentor Mr. Miyagi.", "popularity": 979.23000000000002, "original_name": "Cobra Kai", "backdrop_path": "/gL8myjGc2qrmqVosyGm5CWTir9A.jpg", "vote_average": 8.1999999999999993, "vote_count": 1883, "first_air_date": "2018-05-02", "original_language": "en", "id": 77169, "genre_ids": [10759, 18]}, {"origin_country": ["US"], "poster_path": "/sWgBv7LV2PRoQgkxwlibdGXKz1S.jpg", "name": "The Mandalorian", "overview": "After the fall of the Galactic Empire, lawlessness has spread throughout the galaxy. A lone gunfighter makes his way through the outer reaches, earning his keep as a bounty hunter.", "popularity": 862.15099999999995, "original_name": "The Mandalorian", "backdrop_path": "/o7qi2v4uWQ8bZ1tW3KI0Ztn2epk.jpg", "vote_average": 8.5, "vote_count": 5287, "first_air_date": "2019-11-12", "original_language": "en", "id": 82856, "genre_ids": [10765, 10759]}, {"origin_country": ["US"], "poster_path": "/6tfT03sGp9k4c0J3dypjrI8TSAI.jpg", "name": "The Good Doctor", "overview": "A young surgeon with Savant syndrome is recruited into the surgical unit of a prestigious hospital. The question will arise: can a person who doesn't have the ability to relate to people actually save their lives", "popularity": 870.07600000000002, "original_name": "The Good Doctor", "backdrop_path": "/mZjZgY6ObiKtVuKVDrnS9VnuNlE.jpg", "vote_average": 8.5999999999999996, "vote_count": 6452, "first_air_date": "2017-09-25", "original_language": "en", "id": 71712, "genre_ids": [18]}, {"origin_country": ["CA"], "poster_path": "/bQLrHIRNEkE3PdIWQrZHynQZazu.jpg", "name": "Vikings", "overview": "The adventures of Ragnar Lothbrok, the greatest hero of his age. The series tells the sagas of Ragnar's band of Viking brothers and his family, as he rises to become King of the Viking tribes. As well as being a fearless warrior, Ragnar embodies the Norse traditions of devotion to the gods. Legend has it that he was a direct descendant of Odin, the god of war and warriors.", "popularity": 799.99900000000002, "original_name": "Vikings", "backdrop_path": "/aq2yEMgRQBPfRkrO0Repo2qhUAT.jpg", "vote_average": 8, "vote_count": 3843, "first_air_date": "2013-03-03", "original_language": "en", "id": 44217, "genre_ids": [10759, 18]}, {"origin_country": ["FR"], "poster_path": "/sgxawbFB5Vi5OkPWQLNfl3dvkNJ.jpg", "name": "Lupin", "overview": "Inspired by the adventures of Ars\u00e8ne Lupin, gentleman thief Assane Diop sets out to avenge his father for an injustice inflicted by a wealthy family.", "popularity": 715.54100000000005, "original_name": "Lupin", "backdrop_path": "/lbWUCXIeoVXowAtLlAVR3aeHjkT.jpg", "vote_average": 8.0999999999999996, "vote_count": 277, "first_air_date": "2021-01-08", "original_language": "fr", "id": 96677, "genre_ids": [80, 18, 9648]}, {"origin_country": ["US"], "poster_path": "/yxMpoHO0CXP5o9gB7IfsciilQS4.jpg", "name": "Chilling Adventures of Sabrina", "overview": "As her 16th birthday nears, Sabrina must choose between the witch world of her family and the human world of her friends. Based on the Archie comic.", "popularity": 641.00699999999995, "original_name": "Chilling Adventures of Sabrina", "backdrop_path": "/8AdmUPTyidDebwIuakqkSt6u1II.jpg", "vote_average": 8.4000000000000004, "vote_count": 2165, "first_air_date": "2018-10-26", "original_language": "en", "id": 79242, "genre_ids": [9648, 10765, 18]}, {"origin_country": ["US"], "poster_path": "/clnyhPqj1SNgpAdeSS6a6fwE6Bo.jpg", "name": "Grey's Anatomy", "overview": "Follows the personal and professional lives of a group of doctors at Seattle\u2019s Grey Sloan Memorial Hospital.", "popularity": 654.76900000000001, "original_name": "Grey's Anatomy", "backdrop_path": "/edmk8xjGBsYVIf4QtLY9WMaMcXZ.jpg", "vote_average": 8.1999999999999993, "vote_count": 4994, "first_air_date": "2005-03-27", "original_language": "en", "id": 1416, "genre_ids": [18]}, {"origin_country": ["US"], "poster_path": "/qaewZKBKmXjb4ZfFBb1LCug6BE8.jpg", "name": "Bridgerton", "overview": "Wealth, lust, and betrayal set in the backdrop of Regency era England, seen through the eyes of the powerful Bridgerton family.", "popularity": 542.88400000000001, "original_name": "Bridgerton", "backdrop_path": "/m7FqiUOvsSk7Ulg2oRMfFGcLeT9.jpg", "vote_average": 8.3000000000000007, "vote_count": 493, "first_air_date": "2020-12-25", "original_language": "en", "id": 91239, "genre_ids": [18]}, {"origin_country": ["US"], "poster_path": "/scZlQQYnDVlnpxFTxaIv2g0BWnL.jpg", "name": "The Umbrella Academy", "overview": "A dysfunctional family of superheroes comes together to solve the mystery of their father's death, the threat of the apocalypse and more.", "popularity": 553.27200000000005, "original_name": "The Umbrella Academy", "backdrop_path": "/mE3zzMkpP8yqlkzdjPsQmJHceoe.jpg", "vote_average": 8.6999999999999993, "vote_count": 5477, "first_air_date": "2019-02-15", "original_language": "en", "id": 75006, "genre_ids": [10759, 10765, 18]}, {"origin_country": [], "poster_path": "/gHBtyMdHbWoM3tpM8VZymer8HfF.jpg", "name": "The Wilds", "overview": "A group of teen girls from different backgrounds must fight for survival after a plane crash strands them on a deserted island. The castaways both clash and bond as they learn more about each other, the secrets they keep, and the traumas they've all endured. But there\u2019s just one twist\u2026 these girls did not end up on this island by accident.", "popularity": 495.83699999999999, "original_name": "The Wilds", "backdrop_path": "/rgBxEVr44C00hBg3jLicxWMy9yy.jpg", "vote_average": 8, "vote_count": 133, "first_air_date": "2020-12-11", "original_language": "en", "id": 113367, "genre_ids": [9648, 18]}, {"origin_country": ["US"], "poster_path": "/4EYPN5mVIhKLfxGruy7Dy41dTVn.jpg", "name": "Lucifer", "overview": "Bored and unhappy as the Lord of Hell, Lucifer Morningstar abandoned his throne and retired to Los Angeles, where he has teamed up with LAPD detective Chloe Decker to take down criminals.\u00a0But the longer he's away from the underworld, the greater the threat that the worst of humanity could escape.", "popularity": 549.03200000000004, "original_name": "Lucifer", "backdrop_path": "/ta5oblpMlEcIPIS2YGcq9XEkWK2.jpg", "vote_average": 8.5, "vote_count": 7152, "first_air_date": "2016-01-25", "original_language": "en", "id": 63174, "genre_ids": [80, 10765]}, {"origin_country": ["US"], "poster_path": "/w6XiuRK5QQaLNmIqDRCWOpEcHwi.jpg", "name": "The Stand", "overview": "In a world mostly wiped out by the plague and embroiled in an elemental struggle between good and evil, the fate of mankind rests on the frail shoulders of the 108-year-old Mother Abagail and a handful of survivors. Their worst nightmares are embodied in a man with a lethal smile and unspeakable powers: Randall Flagg, the Dark Man.", "popularity": 512.57799999999997, "original_name": "The Stand", "backdrop_path": "/b7MUOLzo9kxQRSjGHwp589HMdxI.jpg", "vote_average": 7.0999999999999996, "vote_count": 140, "first_air_date": "2020-12-17", "original_language": "en", "id": 86382, "genre_ids": [10765, 18]}, {"origin_country": ["US"], "poster_path": "/xYsNIxKD7JTg3hi03U2TlBFTGKI.jpg", "name": "De brutas, nada", "overview": "In a contemporary Mexico City, a group of six sophisticated close friends navigate through every life experience imaginable together: love, lies, heartbreak, marriage, divorce, kids, career, job loss, fights, break-ups, and unbreakable friendships.", "popularity": 420.471, "original_name": "De brutas, nada", "backdrop_path": "/y4Ia5VeYMWKFMk04lrOXkHrzwTt.jpg", "vote_average": 8.1999999999999993, "vote_count": 285, "first_air_date": "2020-06-11", "original_language": "es", "id": 111499, "genre_ids": [35, 18]}, {"origin_country": ["JP"], "poster_path": "/20mOwAAPwZ1vLQkw0fvuQHiG7bO.jpg", "name": "Alice in Borderland", "overview": "With his two friends, a video-game-obsessed young man finds himself in a strange version of Tokyo where they must compete in dangerous games to win.", "popularity": 380.58300000000003, "original_name": "\u4eca\u969b\u306e\u56fd\u306e\u30a2\u30ea\u30b9", "backdrop_path": "/bKxiLRPVWe2nZXCzt6JPr5HNWYm.jpg", "vote_average": 8.4000000000000004, "vote_count": 121, "first_air_date": "2020-12-10", "original_language": "ja", "id": 110316, "genre_ids": [18, 9648, 10759, 10765]}, {"origin_country": ["ES"], "poster_path": "/lO3JkTPko8kEr2luYGwQocU1lJH.jpg", "name": "The Mess You Leave Behind", "overview": "A teacher starts her job at a high school but is haunted by a suspicious death that occurred there weeks before and begins fearing for her own life.", "popularity": 375.05200000000002, "original_name": "El desorden que dejas", "backdrop_path": "/8FDb3FUNGEeiPmHG00Onlu6xVnE.jpg", "vote_average": 6.4000000000000004, "vote_count": 37, "first_air_date": "2020-12-11", "original_language": "es", "id": 94413, "genre_ids": [18, 9648]}, {"origin_country": ["US"], "poster_path": "/u3bZgnGQ9T01sWNhyveQz0wH0Hl.jpg", "name": "Game of Thrones", "overview": "Seven noble families fight for control of the mythical land of Westeros. Friction between the houses leads to full-scale war. All while a very ancient evil awakens in the farthest north. Amidst the war, a neglected military order of misfits, the Night's Watch, is all that stands between the realms of men and icy horrors beyond.", "popularity": 388.68299999999999, "original_name": "Game of Thrones", "backdrop_path": "/suopoADq0k8YZr4dQXcU6pToj6s.jpg", "vote_average": 8.4000000000000004, "vote_count": 12395, "first_air_date": "2011-04-17", "original_language": "en", "id": 1399, "genre_ids": [10765, 18, 10759, 9648]}, {"origin_country": ["US"], "poster_path": "/aBkVgChtyyJaHyZh1gfd8DbzQon.jpg", "name": "The Vampire Diaries", "overview": "The story of two vampire brothers obsessed with the same girl, who bears a striking resemblance to the beautiful but ruthless vampire they knew and loved in 1864.", "popularity": 379.80099999999999, "original_name": "The Vampire Diaries", "backdrop_path": "/k7T9xRyzP41wBVNyNeLmh8Ch7gD.jpg", "vote_average": 8.3000000000000007, "vote_count": 4852, "first_air_date": "2009-09-10", "original_language": "en", "id": 18165, "genre_ids": [18, 14, 27, 10749]}, {"origin_country": ["ES"], "poster_path": "/b2i9aaV6ncULl9jYXEoPi7VFJg8.jpg", "name": "30 Coins", "overview": "Father Vergara\u2014an exorcist, boxer and ex-convict\u2014lives in a remote village in Spain. Hoping to be lost and forgotten, Vergara\u2019s demons catch up to him.", "popularity": 308.13299999999998, "original_name": "30 Monedas", "backdrop_path": "/uSvncE20Mh3seJLIHLEQnt0OcBv.jpg", "vote_average": 6.7999999999999998, "vote_count": 207, "first_air_date": "2020-11-29", "original_language": "es", "id": 89844, "genre_ids": [80, 9648, 18]}]}