{"total_results": 844, "dates": {"minimum": "2020-12-09", "maximum": "2021-01-26"}, "total_pages": 43, "page": 1, "results": [{"poster_path": "/8UlWHLMpgZm9bx6QYh0NFoq67TZ.jpg", "title": "Wonder Woman 1984", "overview": "Wonder Woman comes into conflict with the Soviet Union during the Cold War in the 1980s and finds a formidable foe by the name of the Cheetah.", "release_date": "2020-12-16", "popularity": 2286.9899999999998, "original_title": "Wonder Woman 1984", "backdrop_path": "/srYya1ZlI97Au4jUYAktDe3avyA.jpg", "vote_count": 2878, "video": false, "adult": false, "vote_average": 7.0999999999999996, "genre_ids": [14, 28, 12], "id": 464052, "original_language": "en"}, {"poster_path": "/hm58Jw4Lw8OIeECIq5qyPYhAeRJ.jpg", "title": "Soul", "overview": "Joe Gardner is a middle school teacher with a love for jazz music. After a successful gig at the Half Note Club, he suddenly gets into an accident that separates his soul from his body and is transported to the You Seminar, a center in which souls develop and gain passions before being transported to a newborn child. Joe must enlist help from the other souls-in-training, like 22, a soul who has spent eons in the You Seminar, in order to get back to Earth.", "release_date": "2020-12-25", "popularity": 2212.1500000000001, "original_title": "Soul", "backdrop_path": "/kf456ZqeC45XTvo6W9pW5clYKfQ.jpg", "vote_count": 3854, "video": false, "adult": false, "vote_average": 8.3000000000000007, "genre_ids": [16, 35, 18, 10402, 14], "id": 508442, "original_language": "en"}, {"poster_path": "/13B6onhL6FzSN2KaNeQeMML05pS.jpg", "title": "Breach", "overview": "A hardened mechanic must stay awake and maintain an interstellar ark fleeing the dying planet Earth with a few thousand lucky souls on board... the last of humanity. Unfortunately, humans are not the only passengers. A shapeshifting alien creature has taken residence, its only goal is to kill as many people as possible. The crew must think quickly to stop this menace before it destroys mankind.", "release_date": "2020-12-17", "popularity": 1683.2909999999999, "original_title": "Breach", "backdrop_path": "/nz8xWrTKZzA5A7FgxaM4kfAoO1W.jpg", "vote_count": 67, "video": false, "adult": false, "vote_average": 4.2000000000000002, "genre_ids": [28, 878], "id": 651571, "original_language": "en"}, {"poster_path": "/2W4ZvACURDyhiNnSIaFPHfNbny3.jpg", "title": "Skylines", "overview": "When a virus threatens to turn the now earth-dwelling friendly alien hybrids against humans, Captain Rose Corley must lead a team of elite mercenaries on a mission to the alien world in order to save what's left of humanity.", "release_date": "2020-12-18", "popularity": 2769.1999999999998, "original_title": "Skylines", "backdrop_path": "/3ombg55JQiIpoPnXYb2oYdr6DtP.jpg", "vote_count": 81, "video": false, "adult": false, "vote_average": 5.9000000000000004, "genre_ids": [878, 28], "id": 560144, "original_language": "en"}, {"poster_path": "/t7EUMSlfUN3jUSZUJOLURAzJzZs.jpg", "title": "Shadow in the Cloud", "overview": "A WWII pilot traveling with top secret documents on a B-17 Flying Fortress encounters an evil presence on board the flight.", "release_date": "2020-12-31", "popularity": 1289.6020000000001, "original_title": "Shadow in the Cloud", "backdrop_path": "/aHYUj0hICtWZ5tPiCIm6pWUcjYK.jpg", "vote_count": 154, "video": false, "adult": false, "vote_average": 6, "genre_ids": [28, 18, 27, 10752], "id": 675327, "original_language": "en"}, {"poster_path": "/vYvppZMvXYheYTWVd8Rnn9nsmNp.jpg", "title": "Vanguard", "overview": "Covert security company Vanguard is the last hope of survival for an accountant after he is targeted by the world's deadliest mercenary organization.", "release_date": "2020-09-30", "popularity": 889.29399999999998, "original_title": "\u6025\u5148\u950b", "backdrop_path": "/fX8e94MEWSuTJExndVYxKsmA4Hw.jpg", "vote_count": 141, "video": false, "adult": false, "vote_average": 7.0999999999999996, "genre_ids": [28, 12, 80], "id": 604822, "original_language": "zh"}, {"poster_path": "/tK1zy5BsCt1J4OzoDicXmr0UTFH.jpg", "title": "The Croods: A New Age", "overview": "Searching for a safer habitat, the prehistoric Crood family discovers an idyllic, walled-in paradise that meets all of its needs. Unfortunately, they must also learn to live with the Bettermans -- a family that's a couple of steps above the Croods on the evolutionary ladder. As tensions between the new neighbors start to rise, a new threat soon propels both clans on an epic adventure that forces them to embrace their differences, draw strength from one another, and survive together.", "release_date": "2020-11-25", "popularity": 978.99900000000002, "original_title": "The Croods: A New Age", "backdrop_path": "/cjaOSjsjV6cl3uXdJqimktT880L.jpg", "vote_count": 1201, "video": false, "adult": false, "vote_average": 7.7000000000000002, "genre_ids": [12, 14, 10751, 16], "id": 529203, "original_language": "en"}, {"poster_path": "/gUQoXmTXz530YUs5QTQ1fqmuGLV.jpg", "title": "The Midnight Sky", "overview": "A lone scientist in the Arctic races to contact a crew of astronauts returning home to a mysterious global catastrophe.", "release_date": "2020-12-10", "popularity": 587.83000000000004, "original_title": "The Midnight Sky", "backdrop_path": "/dueiWzWc81UAgnbDAyH4Gjqnh4n.jpg", "vote_count": 950, "video": false, "adult": false, "vote_average": 5.9000000000000004, "genre_ids": [18, 878], "id": 614911, "original_language": "en"}, {"poster_path": "/zeD4PabP6099gpE0STWJrJrCBCs.jpg", "title": "Honest Thief", "overview": "A bank robber tries to turn himself in because he's falling in love and wants to live an honest life...but when he realizes the Feds are more corrupt than him, he must fight back to clear his name.", "release_date": "2020-09-03", "popularity": 716.44399999999996, "original_title": "Honest Thief", "backdrop_path": "/2M2JxEv3HSpjnZWjY9NOdGgfUd.jpg", "vote_count": 480, "video": false, "adult": false, "vote_average": 6.5999999999999996, "genre_ids": [28, 53, 80, 18], "id": 553604, "original_language": "en"}, {"poster_path": "/zjGrlEuENSjRZGWc8N10zq3Jjkq.jpg", "title": "What Lies Below", "overview": "Liberty, a socially awkward 16-year-old, returns from two months at camp to a blindsided introduction of her mother\u2019s fiance\u0301, John Smith, whose charm, intelligence, and beauty paint the picture of a man too perfect to be human.", "release_date": "2020-12-17", "popularity": 292.12900000000002, "original_title": "What Lies Below", "backdrop_path": "/qLL6H9SGEwRRW6PJHixyUtbBjBE.jpg", "vote_count": 18, "video": false, "adult": false, "vote_average": 6.5999999999999996, "genre_ids": [53, 9648, 27], "id": 716703, "original_language": "en"}, {"poster_path": "/jlJ8nDhMhCYJuzOw3f52CP1W8MW.jpg", "title": "The SpongeBob Movie: Sponge on the Run", "overview": "When his best friend Gary is suddenly snatched away, SpongeBob takes Patrick on a madcap mission far beyond Bikini Bottom to save their pink-shelled pal.", "release_date": "2020-08-14", "popularity": 417.70400000000001, "original_title": "The SpongeBob Movie: Sponge on the Run", "backdrop_path": "/wu1uilmhM4TdluKi2ytfz8gidHf.jpg", "vote_count": 1908, "video": false, "adult": false, "vote_average": 7.9000000000000004, "genre_ids": [16, 14, 12, 35, 10751], "id": 400160, "original_language": "en"}, {"poster_path": "/4n8QNNdk4BOX9Dslfbz5Dy6j1HK.jpg", "title": "Fatman", "overview": "A rowdy, unorthodox Santa Claus is fighting to save his declining business. Meanwhile, Billy, a neglected and precocious 12 year old, hires a hit man to kill Santa after receiving a lump of coal in his stocking.", "release_date": "2020-11-13", "popularity": 267.78399999999999, "original_title": "Fatman", "backdrop_path": "/ckfwfLkl0CkafTasoRw5FILhZAS.jpg", "vote_count": 344, "video": false, "adult": false, "vote_average": 5.5, "genre_ids": [28, 35, 14], "id": 602211, "original_language": "en"}, {"poster_path": "/OgUfLlhfBFx5BPK6LzBWFvBW1w.jpg", "title": "Pieces of a Woman", "overview": "When a young mother's home birth ends in unfathomable tragedy, she begins a year-long odyssey of mourning that fractures relationships with loved ones in this deeply personal story of a woman learning to live alongside her loss.", "release_date": "2020-12-30", "popularity": 287.661, "original_title": "Pieces of a Woman", "backdrop_path": "/izNpxVcjKbF9BiYF4GVqxCOfewL.jpg", "vote_count": 296, "video": false, "adult": false, "vote_average": 7.2000000000000002, "genre_ids": [18], "id": 641662, "original_language": "en"}, {"poster_path": "/f4xfU5BUrdDeOgt3J6drQGNjfZk.jpg", "title": "Asphalt Burning", "overview": "The third and final instalment in the Burnout trilogy. This time, the road leads trough Norway, to Sweden, Denmark and finally Germany to race on the famous racing track, N\u00fcrburgring.", "release_date": "2020-10-14", "popularity": 267.18799999999999, "original_title": "B\u00f8rning 3", "backdrop_path": "/zxHHmvUYlYhBuBmZpIrjnamCO3c.jpg", "vote_count": 57, "video": false, "adult": false, "vote_average": 5.0999999999999996, "genre_ids": [35], "id": 505746, "original_language": "no"}, {"poster_path": "/b1C0FuXp4wiPmHLVKq4kwtDMgK6.jpg", "title": "Roald Dahl's The Witches", "overview": "In late 1967, a young orphaned boy goes to live with his loving grandma in the rural Alabama town of Demopolis. As the boy and his grandmother encounter some deceptively glamorous but thoroughly diabolical witches, she wisely whisks him away to a seaside resort. Regrettably, they arrive at precisely the same time that the world's Grand High Witch has gathered.", "release_date": "2020-10-25", "popularity": 385.13799999999998, "original_title": "Roald Dahl's The Witches", "backdrop_path": "/8rIoyM6zYXJNjzGseT3MRusMPWl.jpg", "vote_count": 1159, "video": false, "adult": false, "vote_average": 6.7999999999999998, "genre_ids": [14, 10751, 12, 35, 27], "id": 531219, "original_language": "en"}, {"poster_path": "/ukUS2Qh4SxrwYdSk0fvDsI61dqB.jpg", "title": "The Empty Man", "overview": "After a group of teens from a small Midwestern town begin to mysteriously disappear, the locals believe it is the work of an urban legend known as The Empty Man. As a retired cop investigates and struggles to make sense of the stories, he discovers a secretive group and their attempts to summon a horrific, mystical entity, and soon his life\u2014and the lives of those close to him\u2014are in grave danger.", "release_date": "2020-10-22", "popularity": 500.91699999999997, "original_title": "The Empty Man", "backdrop_path": "/9nm3eQY0FiPL391vlQrr4Q5WC9w.jpg", "vote_count": 50, "video": false, "adult": false, "vote_average": 6.7999999999999998, "genre_ids": [80, 18, 27], "id": 516632, "original_language": "en"}, {"poster_path": "/xrI4EnZWftpo1B7tTvlMUXVOikd.jpg", "title": "The New Mutants", "overview": "Five young mutants, just discovering their abilities while held in a secret facility against their will, fight to escape their past sins and save themselves.", "release_date": "2020-08-26", "popularity": 203.864, "original_title": "The New Mutants", "backdrop_path": "/2AFZyra0Ddwl2oBDhClvD1qSIL6.jpg", "vote_count": 1386, "video": false, "adult": false, "vote_average": 6.4000000000000004, "genre_ids": [28, 27, 878], "id": 340102, "original_language": "en"}, {"poster_path": "/yF45egpHwaYLn4jTyZAgk0Cmug9.jpg", "title": "Demon Slayer the Movie: Mugen Train", "overview": "Tanjir\u014d Kamado, joined with Inosuke Hashibira, a boy raised by boars who wears a boar's head, and Zenitsu Agatsuma, a scared boy who reveals his true power when he sleeps, boards the Infinity Train on a new mission with the Fire Hashira, Ky\u014djur\u014d Rengoku, to defeat a demon who has been tormenting the people and killing the demon slayers who oppose it!", "release_date": "2020-10-16", "popularity": 223.94999999999999, "original_title": "\u5287\u5834\u7248\u300c\u9b3c\u6ec5\u306e\u5203\u300d\u7121\u9650\u5217\u8eca\u7de8", "backdrop_path": "/d1sVANghKKMZNvqjW0V6y1ejvV9.jpg", "vote_count": 343, "video": false, "adult": false, "vote_average": 8, "genre_ids": [16, 28, 12, 14, 18], "id": 635302, "original_language": "ja"}, {"poster_path": "/8xC6QSyxrpm0D5A6iyHNemEWBVe.jpg", "title": "Freaky", "overview": "A mystical, ancient dagger causes a notorious serial killer to magically switch bodies with a 17-year-old girl.", "release_date": "2020-11-12", "popularity": 152.828, "original_title": "Freaky", "backdrop_path": "/eShw0LB5CkoEfYtpUcXPD85oz5Q.jpg", "vote_count": 362, "video": false, "adult": false, "vote_average": 6.9000000000000004, "genre_ids": [27, 53, 35, 14], "id": 551804, "original_language": "en"}, {"poster_path": "/eAUzmhP54bE1vPXaY7FbuZREJlR.jpg", "title": "Sputnik", "overview": "At the height of the Cold War, a Soviet spacecraft crash lands after a mission gone awry, leaving the commander as its only survivor. After a renowned Russian psychologist is brought in to evaluate the commander\u2019s mental state, it becomes clear that something dangerous may have come back to Earth with him\u2026", "release_date": "2020-09-08", "popularity": 161.221, "original_title": "Sputnik", "backdrop_path": "/mBbA77FyzhU0Tz9tmbKG8heGmh3.jpg", "vote_count": 130, "video": false, "adult": false, "vote_average": 6.4000000000000004, "genre_ids": [878, 18, 27], "id": 594718, "original_language": "ru"}]}