{"total_results": 92, "total_pages": 5, "page": 1, "results": [{"poster_path": "/udDclJoHjfjb8Ekgsd4FDteOkCU.jpg", "title": "Joker", "overview": "During the 1980s, a failed stand-up comedian is driven insane and turns to a life of crime and chaos in Gotham City while becoming an infamous psychopathic crime figure.", "release_date": "2019-10-02", "popularity": 168.74799999999999, "original_title": "Joker", "backdrop_path": "/n6bUvigpRFqSwmPp1m2YADdbRBc.jpg", "vote_count": 16368, "video": false, "adult": false, "vote_average": 8.1999999999999993, "media_type": "movie", "genre_ids": [80, 53, 18], "id": 475557, "original_language": "en"}, {"poster_path": "/7RlBs0An83fqAuKfwH5gKMcqgMc.jpg", "title": "Batman Beyond: Return of the Joker", "overview": "The Joker is back with a vengeance, and Gotham's newest Dark Knight needs answers as he stands alone to face Gotham's most infamous Clown Prince of Crime.", "release_date": "2000-12-12", "popularity": 25.466000000000001, "original_title": "Batman Beyond: Return of the Joker", "backdrop_path": "/op54PTMD4g5nnVjsUO2o8PAQjec.jpg", "vote_count": 470, "video": false, "adult": false, "vote_average": 7.4000000000000004, "media_type": "movie", "genre_ids": [16, 10751, 28, 878], "id": 16234, "original_language": "en"}, {"poster_path": "/am5Sst8LFmU0bhPrzU3km4RRy3J.jpg", "title": "Joker: Put on a Happy Face", "overview": "Featuring interviews with filmmakers and industry legends, discover the origins and evolution of The Joker, and learn why The Clown Prince of Crime is universally hailed as the greatest comic-book supervillain of all time.", "release_date": "2020-08-18", "popularity": 13.984999999999999, "original_title": "Joker: Put on a Happy Face", "backdrop_path": "/wh6PwvacnbqfIbxn9nDutxCA0DB.jpg", "vote_count": 11, "video": false, "adult": false, "vote_average": 9, "media_type": "movie", "genre_ids": [99], "id": 734586, "original_language": "en"}, {"poster_path": "/vsTCxQvilO6GSMDL9IVl61bNL1D.jpg", "title": "Joker", "overview": "In 1947 when the maps of India and Pakistan were being drawn, an oversight ensured that the village of Paglapur didn't find a place in either country. Over 60 years later, Paglapur is isolated, and in need of help. The residents seek help, but as a direct result of being left off the map, they find noone willing to accept Paglapur, and its problems, as their jurisdiction. The villagers decide they need to draw media attention to Paglapur, and in so doing, gain acceptance and help from those who had previously denied them.", "release_date": "2012-08-31", "popularity": 3.5609999999999999, "original_title": "Joker", "backdrop_path": null, "vote_count": 26, "video": false, "adult": false, "vote_average": 3.7999999999999998, "media_type": "movie", "genre_ids": [35, 878], "id": 129507, "original_language": "hi"}, {"poster_path": "/brxoc8xjWRWGoRMGLy1NV59LeYF.jpg", "title": "The Joker Is Wild", "overview": "Frank Sinatra stars in director Charles Vidor's 1957 film biography of nightclub entertainer Joe E. Lewis. The cast also includes Mitzi Gaynor, Jeanne Crain, Eddie Albert, Beverly Garland, Jackie Coogan, Harold Huber, Barry Kelley, Ted de Corsia, Ned Glass, Mary Treen and Sid Melton.", "release_date": "1957-09-26", "popularity": 6.4450000000000003, "original_title": "The Joker Is Wild", "backdrop_path": "/dV5XTZg4H3h60iiF6oSbPR0uPz7.jpg", "vote_count": 145, "video": false, "adult": false, "vote_average": 8.3000000000000007, "media_type": "movie", "genre_ids": [18], "id": 133792, "original_language": "en"}, {"poster_path": "/rY8eu4yQTwpZgz8BEVKfGIh8TUG.jpg", "title": "Joker", "overview": "", "release_date": "1991-11-01", "popularity": 2.3319999999999999, "original_title": "Joker", "backdrop_path": "/53WIxWs7RWUja4CzE3TJOQ2xjVv.jpg", "vote_count": 10, "video": false, "adult": false, "vote_average": 5.0999999999999996, "media_type": "movie", "genre_ids": [35], "id": 146486, "original_language": "sv"}, {"poster_path": null, "title": "Untitled Harley Quinn & The Joker Project", "overview": "A criminal love story. Plot unknown.", "popularity": 7.9710000000000001, "original_title": "Untitled Harley Quinn & The Joker Project", "backdrop_path": null, "vote_count": 0, "video": false, "adult": false, "vote_average": 0, "media_type": "movie", "genre_ids": [28, 80, 10749], "id": 472639, "original_language": "en"}, {"poster_path": "/9jCuI9ysebWcE9gAR7V3ZASRt5V.jpg", "title": "Joker's Poltergeist", "overview": "After a clown-masked assailant guns down Aurora's Place, the resident theater owner fights to re-open her business.", "release_date": "2015-06-03", "popularity": 6.726, "original_title": "Joker's Poltergeist", "backdrop_path": "/fihXbO1gnEcoeYNzSdV8864XLSS.jpg", "vote_count": 13, "video": false, "adult": false, "vote_average": 4.4000000000000004, "media_type": "movie", "genre_ids": [27, 53], "id": 416572, "original_language": "en"}, {"poster_path": "/8DUtGzIOcy7bSNKLcfHP87AHXue.jpg", "title": "Joker Scarecrow", "overview": "A family are hunted down by a masked killer that hands each member the Joker card thus beginning the twisted games that are to begin.", "release_date": "2020-12-11", "popularity": 1.9610000000000001, "original_title": "Joker Scarecrow", "backdrop_path": null, "vote_count": 0, "video": false, "adult": false, "vote_average": 0, "media_type": "movie", "genre_ids": [27], "id": 776041, "original_language": "en"}, {"poster_path": null, "title": "Joker 2", "overview": "Sequel to the 2019 film \"Joker\".", "popularity": 1.798, "original_title": "Joker 2", "backdrop_path": null, "vote_count": 0, "video": false, "adult": false, "vote_average": 0, "media_type": "movie", "genre_ids": [53, 80, 18], "id": 649535, "original_language": "en"}, {"poster_path": "/mHN2KrIMf1e4FPRpkkZQHR9Lks4.jpg", "title": "Lethal Obsession", "overview": "", "release_date": "1987-10-15", "popularity": 1.3140000000000001, "original_title": "Der Joker", "backdrop_path": null, "vote_count": 6, "video": false, "adult": false, "vote_average": 4.9000000000000004, "media_type": "movie", "genre_ids": [18, 80, 53], "id": 92152, "original_language": "de"}, {"origin_country": ["DE"], "poster_path": "/ANvMZVzzOkc06ZoyJAE0oYv8T.jpg", "name": "Jolly Joker", "overview": "Jolly Joker is a German television series.", "popularity": 1.2050000000000001, "original_name": "Jolly Joker", "backdrop_path": null, "vote_average": 6.5, "vote_count": 2, "first_air_date": "1991-01-06", "media_type": "tv", "original_language": "de", "id": 41155, "genre_ids": [35]}, {"known_for": [{"poster_path": "/852gvRFHLxlzM51kEYc5hnziffV.jpg", "title": "Ratchagan", "overview": "A girl falls for a violent man, who keeps taking law in his hands and beats people up. She wants to marry to him and eventually even he says yes, but her father has a condition that he should control his anger and work with him in his factory.", "release_date": "1997-10-29", "original_title": "\u0bb0\u0b9f\u0bcd\u0b9a\u0b95\u0ba9\u0bcd", "backdrop_path": "/9ElUAN4UutCSR7jnk5JthT0Z1Da.jpg", "vote_count": 4, "video": false, "adult": false, "vote_average": 7.5, "media_type": "movie", "genre_ids": [28, 10749], "id": 179848, "original_language": "ta"}, {"poster_path": "/nI5qdvLHApaUTa3aZA8e2gBU0IZ.jpg", "title": "Maruthu Pandi", "overview": "In the village Ammapatti, Maruthu Pandi is a coracle operator in day and the village protector at night. The villagers give him food in exchange of his work. Maruthu Pandi has a mentally ill sister Lakshmi who is pregnant and he takes care of Lakshmi like a mother. Kanagavalli, a dancer, slowly falls in love with Maruthu Pandi. Kanagavalli is in fact a police officer who wants to arrest Maruthu Pandi. Maruthu Pandi's real name is Manickam, and after a revealed flashback, police team come to Ammapatti to arrest Manickam. What transpires later forms the crux of the story.", "release_date": "1990-04-27", "original_title": "\u0bae\u0bb0\u0bc1\u0ba4\u0bc1\u0baa\u0bbe\u0ba3\u0bcd\u0b9f\u0bbf", "vote_count": 0, "video": false, "adult": false, "vote_average": 0, "media_type": "movie", "genre_ids": [10749, 80, 28], "id": 504703, "original_language": "ta"}, {"poster_path": "/mMZkgk7sNLOuKo9DzOVCIgcLW8t.jpg", "title": "Purushan Pondatti", "overview": "Pandian's mother refuses to let him and Rajeshwari, his poor wife, live together until her family settles the dowry. So he begins to borrow money in order to stay with his wife.", "release_date": "1996-12-16", "original_title": "\u0baa\u0bc1\u0bb0\u0bc1\u0bb7\u0ba9\u0bcd \u0baa\u0bca\u0ba3\u0bcd\u0b9f\u0bbe\u0b9f\u0bcd\u0b9f\u0bbf", "vote_count": 0, "video": false, "adult": false, "vote_average": 0, "media_type": "movie", "genre_ids": [], "id": 758928, "original_language": "ta"}], "name": "Joker Thulasi", "gender": 2, "popularity": 0.59999999999999998, "adult": false, "media_type": "person", "profile_path": null, "id": 587984, "known_for_department": "Acting"}, {"poster_path": "/sxvGzhK62cZ3KVDnJ7hDTcQvgMz.jpg", "title": "Joker", "overview": "1983 short by Tessa Hughes-Freeland", "release_date": "1983-09-25", "popularity": 0.59999999999999998, "original_title": "Joker", "backdrop_path": null, "vote_count": 0, "video": false, "adult": false, "vote_average": 0, "media_type": "movie", "genre_ids": [], "id": 361365, "original_language": "en"}, {"known_for": [{"poster_path": "/a661yO6SozDzsm0qA2KH9oXpQtK.jpg", "title": "The Great American Mud Wrestle", "overview": "For one-night-only blood was spilled in the mud.", "release_date": "2018-09-17", "original_title": "The Great American Mud Wrestle", "vote_count": 0, "video": false, "adult": false, "vote_average": 0, "media_type": "movie", "genre_ids": [99], "id": 628221, "original_language": "en"}], "name": "The Joker", "gender": 0, "popularity": 0.59999999999999998, "adult": false, "media_type": "person", "profile_path": null, "id": 2402477, "known_for_department": "Acting"}, {"poster_path": "/68DKYcI7DdhYfw9C2rGgs6FdLFp.jpg", "title": "JOKER: Marginal City", "overview": "Joker is a cyborg who has superior strength, can absorb the DNA of any person by touch and regrow its body or part of it at will (hence Joker can be a male or a female). Joker belongs to a special troop of law enforcement: as cop, judge and executioner at the same time. Along with his/her lover, a police officer, they have dealt against criminals of every type.", "release_date": "1992-04-21", "popularity": 0.59999999999999998, "original_title": "JOKER \u30de\u30fc\u30b8\u30ca\u30eb\u30fb\u30b7\u30c6\u30a3", "backdrop_path": null, "vote_count": 4, "video": false, "adult": false, "vote_average": 5, "media_type": "movie", "genre_ids": [16, 9648, 878], "id": 394520, "original_language": "ja"}, {"known_for": [{"origin_country": ["SE"], "poster_path": "/pIVmxtQ4eKLf75Ku5kltDAw8hx8.jpg", "name": "Melodifestivalen", "overview": "The annual music competition organised by Swedish public broadcasters Sveriges Television and Sveriges Radio to determine the country's representative for the Eurovision Song Contest.", "original_name": "Melodifestivalen", "backdrop_path": "/3P7WxTOl6yhSBudoikDVTyQP9zr.jpg", "vote_average": 4.2999999999999998, "vote_count": 4, "first_air_date": "1958-10-07", "media_type": "tv", "original_language": "sv", "id": 12642, "genre_ids": [10751, 10764]}], "name": "Jimmy Joker", "gender": 2, "popularity": 0.59999999999999998, "adult": false, "media_type": "person", "profile_path": "/4atLfP6AajX6Tu3cXGOHnkpeSwx.jpg", "id": 2305480, "known_for_department": "Sound"}, {"known_for": [{"poster_path": "/52KTMHx4i8CTamSg1V3agrKVaQt.jpg", "title": "Batas Militar", "overview": "It features the human rights violations during martial law. Economy and biographies of Ferdinand Marcos, Imelda Marcos, and Benigno Aquino Jr.", "release_date": "1997-09-21", "original_title": "Batas Militar", "backdrop_path": null, "vote_count": 0, "video": false, "adult": false, "vote_average": 0, "media_type": "movie", "genre_ids": [99], "id": 549928, "original_language": "tl"}], "name": "Joker Arroyo", "gender": 0, "popularity": 0.59999999999999998, "adult": false, "media_type": "person", "profile_path": null, "id": 2133276, "known_for_department": "Acting"}, {"origin_country": ["AU"], "poster_path": null, "name": "Joker Poker", "overview": "Joker Poker was a late night Australian poker program on Network Ten which aired in 2005 and 2006. Series one was hosted by Adam Spencer, with series two hosted by Mike Goldman. Both series were co-hosted by New Zealand poker pro Lee Nelson and Australian model Laura Weston acted as hostess. The show was produced by Australian Production Company Freehand Group.\n\nThe show featured Australian comedians playing no-limit Texas hold'em poker. Four comedians compete in each episode on behalf of their chosen charity. It was recorded in the high rollers' room of Sydney's Star City Casino for the first season and in a studio at Fox Studios in Sydney for the second. The weekly winner donates $5,000 to charity, while the series winner donates $25,000.\n\nA New Zealand version also aired in 2007.", "popularity": 0.84199999999999997, "original_name": "Joker Poker", "backdrop_path": null, "vote_average": 0, "vote_count": 0, "first_air_date": "2005-09-24", "media_type": "tv", "original_language": "en", "id": 5345, "genre_ids": []}, {"poster_path": "/xNVLGgvlyzeGAM7jeOMTQ4DXCvD.jpg", "title": "Ero the Joker", "overview": "To find a wife who truly loves him, a young trickster disguises himself as a pauper. But getting her parents' blessing will take every trick in the book.  Part of the Croatian National Theatre\u2019s repertoire since its premiere in 1935, Jakov Gotovac\u2019s comic opera is an ode to a rural way of life. It culminates in a frenzied tempo with a vigorous ballet \u2013 a celebration of Dalmatian music and dance.", "release_date": "2018-11-06", "popularity": 0.92600000000000005, "original_title": "Ero the Joker", "backdrop_path": null, "vote_count": 0, "video": false, "adult": false, "vote_average": 0, "media_type": "movie", "genre_ids": [], "id": 563477, "original_language": "en"}]}